…
    ## Warning: Expected 2 pieces. Additional pieces discarded in 20 rows [1, 2, 3, 4,
    ## 5, 6, 7, 8, 9, 10, 11, 12, 13, 14, 15, 16, 17, 18, 19, 20].

``` r
# Tidy
longit_study_tidy = longit_study %>% 
  pivot_longer(week_1:week_8,
               names_to = "week",
               names_prefix = "week_",
               values_to = "observation") 
longit_study_tidy 
```

    ## # A tibble: 160 x 4
    ##    control subject_id week  observation
    ##    <chr>   <chr>      <chr>       <dbl>
    ##  1 control 01         1            0.2 
    ##  2 control 01         2           -1.31
    ##  3 control 01         3            0.66
    ##  4 control 01         4            1.96
    ##  5 control 01         5            0.23
    ##  6 control 01         6            1.09
    ##  7 control 01         7            0.05
    ##  8 control 01         8            1.94
    ##  9 control 02         1            1.13
    ## 10 control 02         2           -0.88
    ## # ... with 150 more rows
…
